  {
    "assets": [
    {
      "beaconid" : "FA:17:E0:08:AC:78",
      "asset": "Kitchen Accessories",
      "date": "21-11-2014",
      "time" : "08:54",
      "Desc" : "All the items/accessories you need for a perfect kitchen.",
      "Brands" : "Havells, Pristige, Samsung",
      "Offers" : "15% off on purchace above 300 INR"
    },
    {
      "beaconid" : "EA:5B:B1:04:BA:E7",
      "asset": "Beverages",
      "date": "01-01-2014",
      "time" : "09:40",
      "Desc" : "Have a backup for hunger crisis.",
      "Brands" : "Kurkure, Fritolay",
      "Offers" : "Buy two family packs and get 20 Rs off "
    },
    {
      "beaconid" : "ED:65:22:6A:19:53",
      "asset": "Books",
      "date": "11-11-2014",
      "time" : "19:40",
      "Desc" : "Because its a person's best friend.",
      "Brands" : "paulo coelho, Chetan Bhagat",
      "Offers" : "10% off on Fiction"
    },
    {
      "beaconid" : "CE:0B:89:EE:21:9A",
      "asset": "Fruits",
      "date": "11-11-2014",
      "time" : "19:40",
      "Desc" : "Stay Healthy.",
      "Brands" : "Apple,Orange,Grapes",
      "Offers" : "Buys more than 2KGs and get 10% discount on total bill"
    },
    {
      "beaconid" : "DF:AF:A9:FD:F8:6D",
      "asset": "Ice Cream",
      "date": "01-12-2014",
      "time" : "09:40",
      "Desc" : "For fighting this summer.",
      "Brands" : "Vadilal,Schwan's,Kwality Walls",
      "Offers" : "Get one brick free with three bricks."
    },
    {
      "beaconid" : "EE:33:88:1B:3A:48",
      "asset": "Shoes",
      "date": "01-12-2014",
      "time" : "09:55",
      "Desc" : "Only the best stuff for your feet.",
      "Brands" : "Adidas, Nike, CAT, Puma",
      "Offers" : "Upto 60% off on men sneakers."
    }
  ] ,
    "wishlist": [
        {
            "beaconid": "FA:17:E0:08:AC:78"
        },
        {
            "beaconid": "ED:65:22:6A:19:53"
        }
    ] 

}
