{
  "ContentEncoding": null,
  "ContentType": null,
  "Data": {
    "success": true,
    "message": "Wishlist fetched Successfully",
    "wishlistdata": {
      "Id": 68719476736,
      "Name": "Customer Wish list",
      "CustomerId": "004024",
      "CustomerName": "Tom Dueterme",
      "IsFavorite": false,
      "IsRecurring": false,
      "IsPrivate": false,
      "IsCollaborative": false,
      "CreatedDateTime": "0001-01-01T00:00:00+00:00",
      "DueDateTime": "0001-01-01T00:00:00+00:00",
      "CommerceListTypeValue": 1,
      "CommerceListLines": [
        {
          "CommerceListId": 68719476736,
          "LineId": 68719476755,
          "CustomerId": "004024",
          "CustomerName": "Tom Dueterme",
          "ProductId": 68719482500,
          "Quantity": 1,
          "UnitOfMeasure": "",
          "IsFavorite": false,
          "IsRecurring": false,
          "IsPrivate": false,
          "CreatedDateTime": "2017-01-25T12:25:59+00:00",
          "ExtensionProperties": []
        },
        {
          "CommerceListId": 68719476736,
          "LineId": 68719476754,
          "CustomerId": "004024",
          "CustomerName": "Tom Dueterme",
          "ProductId": 68719482372,
          "Quantity": 1,
          "UnitOfMeasure": "",
          "IsFavorite": false,
          "IsRecurring": false,
          "IsPrivate": false,
          "CreatedDateTime": "2017-01-24T11:49:58+00:00",
          "ExtensionProperties": []
        },
        {
          "CommerceListId": 68719476736,
          "LineId": 68719476736,
          "CustomerId": "004024",
          "CustomerName": "Tom Dueterme",
          "ProductId": 68719483874,
          "Quantity": 1,
          "UnitOfMeasure": "",
          "IsFavorite": false,
          "IsRecurring": false,
          "IsPrivate": false,
          "CreatedDateTime": "2017-01-24T07:18:17+00:00",
          "ExtensionProperties": []
        }
      ],
      "CommerceListContributors": [],
      "CommerceListInvitations": [],
      "ExtensionProperties": []
    }
  },
  "JsonRequestBehavior": 1,
  "MaxJsonLength": null,
  "RecursionLimit": null
}